-2.5  -1.5  0  20  0 0.  0. 
-2.5  -1.5  20  30  0 0.  0. 
-2.5  -1.5  30  50  0.146268 0.  0. 
-2.5  -1.5  50  100  0.133918 0.  0. 
-2.5  -1.5  100  200  0.14574 0.  0. 
-2.5  -1.5  200  1000  0.176882 0.  0. 
-1.5  -0.5  0  20  0 0.  0. 
-1.5  -0.5  20  30  0 0.  0. 
-1.5  -0.5  30  50  0.104921 0.  0. 
-1.5  -0.5  50  100  0.0779009 0.  0. 
-1.5  -0.5  100  200  0.080301 0.  0. 
-1.5  -0.5  200  1000  0.103121 0.  0. 
-0.5  0.5  0  20  0 0.  0. 
-0.5  0.5  20  30  0 0.  0. 
-0.5  0.5  30  50  0.0644056 0.  0. 
-0.5  0.5  50  100  0.0536682 0.  0. 
-0.5  0.5  100  200  0.0556027 0.  0. 
-0.5  0.5  200  1000  0.0658789 0.  0. 
0.5  1.5  0  20  0 0.  0. 
0.5  1.5  20  30  0 0.  0. 
0.5  1.5  30  50  0.114502 0.  0. 
0.5  1.5  50  100  0.0775084 0.  0. 
0.5  1.5  100  200  0.0843758 0.  0. 
0.5  1.5  200  1000  0.106084 0.  0. 
1.5  2.5  0  20  0 0.  0. 
1.5  2.5  20  30  0 0.  0. 
1.5  2.5  30  50  0.201838 0.  0. 
1.5  2.5  50  100  0.129775 0.  0. 
1.5  2.5  100  200  0.138963 0.  0. 
1.5  2.5  200  1000  0.16597 0.  0. 
